{"frames": {

"Dialogue-box.png":
{
	"frame": {"x":1,"y":1140,"w":397,"h":291},
	"rotated": false,
	"trimmed": true,
	"spriteSourceSize": {"x":334,"y":126,"w":397,"h":291},
	"sourceSize": {"w":1066,"h":600}
},
"light_flashing_0001.png":
{
	"frame": {"x":1,"y":528,"w":414,"h":300},
	"rotated": false,
	"trimmed": true,
	"spriteSourceSize": {"x":326,"y":123,"w":414,"h":300},
	"sourceSize": {"w":1066,"h":600}
},
"light_flashing_0002.png":
{
	"frame": {"x":1,"y":830,"w":399,"h":308},
	"rotated": false,
	"trimmed": true,
	"spriteSourceSize": {"x":332,"y":119,"w":399,"h":308},
	"sourceSize": {"w":1066,"h":600}
},
"stage_light.png":
{
	"frame": {"x":1,"y":1,"w":525,"h":467},
	"rotated": true,
	"trimmed": true,
	"spriteSourceSize": {"x":282,"y":56,"w":525,"h":467},
	"sourceSize": {"w":1066,"h":600}
}},
"animations": {
	"light_flashing": ["light_flashing_0001.png","light_flashing_0002.png"]
},
"meta": {
	"app": "https://www.codeandweb.com/texturepacker",
	"version": "1.0",
	"image": "dialog.png",
	"format": "RGBA8888",
	"size": {"w":469,"h":1432},
	"scale": "1",
	"smartupdate": "$TexturePacker:SmartUpdate:9a52c6df7ba44b8043e3e929af8362df:93f6beddb7db0c35fd6ebc5a19aa3637:329b34835539abbbce6727e4ce86c85e$"
}
}
