{"frames": {

"scatter_seq_0001.png":
{
	"frame": {"x":1,"y":1,"w":492,"h":342},
	"rotated": false,
	"trimmed": true,
	"spriteSourceSize": {"x":9,"y":0,"w":492,"h":342},
	"sourceSize": {"w":501,"h":342}
},
"scatter_seq_0002.png":
{
	"frame": {"x":495,"y":1,"w":489,"h":342},
	"rotated": false,
	"trimmed": true,
	"spriteSourceSize": {"x":12,"y":0,"w":489,"h":342},
	"sourceSize": {"w":501,"h":342}
},
"scatter_seq_0003.png":
{
	"frame": {"x":986,"y":1,"w":488,"h":342},
	"rotated": false,
	"trimmed": true,
	"spriteSourceSize": {"x":13,"y":0,"w":488,"h":342},
	"sourceSize": {"w":501,"h":342}
},
"scatter_seq_0004.png":
{
	"frame": {"x":1,"y":345,"w":487,"h":342},
	"rotated": false,
	"trimmed": true,
	"spriteSourceSize": {"x":14,"y":0,"w":487,"h":342},
	"sourceSize": {"w":501,"h":342}
},
"scatter_seq_0005.png":
{
	"frame": {"x":1476,"y":1,"w":486,"h":342},
	"rotated": true,
	"trimmed": true,
	"spriteSourceSize": {"x":15,"y":0,"w":486,"h":342},
	"sourceSize": {"w":501,"h":342}
},
"scatter_seq_0006.png":
{
	"frame": {"x":490,"y":345,"w":486,"h":342},
	"rotated": false,
	"trimmed": true,
	"spriteSourceSize": {"x":15,"y":0,"w":486,"h":342},
	"sourceSize": {"w":501,"h":342}
},
"scatter_seq_0007.png":
{
	"frame": {"x":1472,"y":489,"w":501,"h":342},
	"rotated": true,
	"trimmed": false,
	"spriteSourceSize": {"x":0,"y":0,"w":501,"h":342},
	"sourceSize": {"w":501,"h":342}
},
"scatter_seq_0008.png":
{
	"frame": {"x":1,"y":689,"w":501,"h":342},
	"rotated": false,
	"trimmed": false,
	"spriteSourceSize": {"x":0,"y":0,"w":501,"h":342},
	"sourceSize": {"w":501,"h":342}
},
"scatter_seq_0009.png":
{
	"frame": {"x":504,"y":689,"w":501,"h":342},
	"rotated": false,
	"trimmed": false,
	"spriteSourceSize": {"x":0,"y":0,"w":501,"h":342},
	"sourceSize": {"w":501,"h":342}
},
"scatter_seq_0010.png":
{
	"frame": {"x":1007,"y":689,"w":501,"h":342},
	"rotated": true,
	"trimmed": false,
	"spriteSourceSize": {"x":0,"y":0,"w":501,"h":342},
	"sourceSize": {"w":501,"h":342}
},
"scatter_seq_0011.png":
{
	"frame": {"x":1351,"y":992,"w":501,"h":342},
	"rotated": false,
	"trimmed": false,
	"spriteSourceSize": {"x":0,"y":0,"w":501,"h":342},
	"sourceSize": {"w":501,"h":342}
},
"scatter_seq_0012.png":
{
	"frame": {"x":1,"y":1033,"w":501,"h":342},
	"rotated": false,
	"trimmed": false,
	"spriteSourceSize": {"x":0,"y":0,"w":501,"h":342},
	"sourceSize": {"w":501,"h":342}
},
"scatter_seq_0013.png":
{
	"frame": {"x":504,"y":1033,"w":501,"h":342},
	"rotated": false,
	"trimmed": false,
	"spriteSourceSize": {"x":0,"y":0,"w":501,"h":342},
	"sourceSize": {"w":501,"h":342}
},
"scatter_seq_0014.png":
{
	"frame": {"x":1007,"y":1336,"w":501,"h":342},
	"rotated": false,
	"trimmed": false,
	"spriteSourceSize": {"x":0,"y":0,"w":501,"h":342},
	"sourceSize": {"w":501,"h":342}
},
"scatter_seq_0015.png":
{
	"frame": {"x":1,"y":1377,"w":501,"h":342},
	"rotated": false,
	"trimmed": false,
	"spriteSourceSize": {"x":0,"y":0,"w":501,"h":342},
	"sourceSize": {"w":501,"h":342}
},
"scatter_seq_0016.png":
{
	"frame": {"x":504,"y":1377,"w":501,"h":342},
	"rotated": false,
	"trimmed": false,
	"spriteSourceSize": {"x":0,"y":0,"w":501,"h":342},
	"sourceSize": {"w":501,"h":342}
},
"scatter_seq_0017.png":
{
	"frame": {"x":1510,"y":1336,"w":501,"h":342},
	"rotated": true,
	"trimmed": false,
	"spriteSourceSize": {"x":0,"y":0,"w":501,"h":342},
	"sourceSize": {"w":501,"h":342}
},
"scatter_seq_0018.png":
{
	"frame": {"x":1007,"y":1680,"w":501,"h":342},
	"rotated": false,
	"trimmed": false,
	"spriteSourceSize": {"x":0,"y":0,"w":501,"h":342},
	"sourceSize": {"w":501,"h":342}
},
"scatter_seq_0019.png":
{
	"frame": {"x":1,"y":1721,"w":501,"h":342},
	"rotated": false,
	"trimmed": false,
	"spriteSourceSize": {"x":0,"y":0,"w":501,"h":342},
	"sourceSize": {"w":501,"h":342}
},
"scatter_seq_0020.png":
{
	"frame": {"x":504,"y":1721,"w":501,"h":342},
	"rotated": false,
	"trimmed": false,
	"spriteSourceSize": {"x":0,"y":0,"w":501,"h":342},
	"sourceSize": {"w":501,"h":342}
},
"scatter_seq_0021.png":
{
	"frame": {"x":1510,"y":1839,"w":501,"h":342},
	"rotated": true,
	"trimmed": false,
	"spriteSourceSize": {"x":0,"y":0,"w":501,"h":342},
	"sourceSize": {"w":501,"h":342}
},
"scatter_seq_0022.png":
{
	"frame": {"x":1007,"y":2024,"w":501,"h":342},
	"rotated": false,
	"trimmed": false,
	"spriteSourceSize": {"x":0,"y":0,"w":501,"h":342},
	"sourceSize": {"w":501,"h":342}
},
"scatter_seq_0023.png":
{
	"frame": {"x":1,"y":2065,"w":501,"h":342},
	"rotated": false,
	"trimmed": false,
	"spriteSourceSize": {"x":0,"y":0,"w":501,"h":342},
	"sourceSize": {"w":501,"h":342}
},
"scatter_seq_0024.png":
{
	"frame": {"x":504,"y":2065,"w":501,"h":342},
	"rotated": false,
	"trimmed": false,
	"spriteSourceSize": {"x":0,"y":0,"w":501,"h":342},
	"sourceSize": {"w":501,"h":342}
},
"scatter_seq_0025.png":
{
	"frame": {"x":978,"y":345,"w":492,"h":342},
	"rotated": false,
	"trimmed": true,
	"spriteSourceSize": {"x":9,"y":0,"w":492,"h":342},
	"sourceSize": {"w":501,"h":342}
}},
"animations": {
	"scatter_seq": ["scatter_seq_0001.png","scatter_seq_0002.png","scatter_seq_0003.png","scatter_seq_0004.png","scatter_seq_0005.png","scatter_seq_0006.png","scatter_seq_0007.png","scatter_seq_0008.png","scatter_seq_0009.png","scatter_seq_0010.png","scatter_seq_0011.png","scatter_seq_0012.png","scatter_seq_0013.png","scatter_seq_0014.png","scatter_seq_0015.png","scatter_seq_0016.png","scatter_seq_0017.png","scatter_seq_0018.png","scatter_seq_0019.png","scatter_seq_0020.png","scatter_seq_0021.png","scatter_seq_0022.png","scatter_seq_0023.png","scatter_seq_0024.png","scatter_seq_0025.png"]
},
"meta": {
	"app": "https://www.codeandweb.com/texturepacker",
	"version": "1.0",
	"image": "scatter.png",
	"format": "RGBA8888",
	"size": {"w":1853,"h":2408},
	"scale": "1",
	"smartupdate": "$TexturePacker:SmartUpdate:90e43fc0314a3a4d40e8f7ece640765c:d9a09dc961132915478be78684c5ee32:64565495903799e8eba5e511fd554af7$"
}
}
