{"frames": {

"wild_seq_0001.png":
{
	"frame": {"x":1924,"y":1453,"w":482,"h":348},
	"rotated": true,
	"trimmed": true,
	"spriteSourceSize": {"x":19,"y":386,"w":482,"h":348},
	"sourceSize": {"w":501,"h":734}
},
"wild_seq_0002.png":
{
	"frame": {"x":2274,"y":1456,"w":482,"h":341},
	"rotated": true,
	"trimmed": true,
	"spriteSourceSize": {"x":19,"y":393,"w":482,"h":341},
	"sourceSize": {"w":501,"h":734}
},
"wild_seq_0003.png":
{
	"frame": {"x":1456,"y":969,"w":482,"h":454},
	"rotated": true,
	"trimmed": true,
	"spriteSourceSize": {"x":19,"y":280,"w":482,"h":454},
	"sourceSize": {"w":501,"h":734}
},
"wild_seq_0004.png":
{
	"frame": {"x":2065,"y":488,"w":482,"h":562},
	"rotated": true,
	"trimmed": true,
	"spriteSourceSize": {"x":19,"y":172,"w":482,"h":562},
	"sourceSize": {"w":501,"h":734}
},
"wild_seq_0005.png":
{
	"frame": {"x":1456,"y":1,"w":482,"h":649},
	"rotated": true,
	"trimmed": true,
	"spriteSourceSize": {"x":19,"y":85,"w":482,"h":649},
	"sourceSize": {"w":501,"h":734}
},
"wild_seq_0006.png":
{
	"frame": {"x":488,"y":1340,"w":482,"h":614},
	"rotated": false,
	"trimmed": true,
	"spriteSourceSize": {"x":19,"y":120,"w":482,"h":614},
	"sourceSize": {"w":501,"h":734}
},
"wild_seq_0007.png":
{
	"frame": {"x":972,"y":659,"w":482,"h":654},
	"rotated": false,
	"trimmed": true,
	"spriteSourceSize": {"x":19,"y":80,"w":482,"h":654},
	"sourceSize": {"w":501,"h":734}
},
"wild_seq_0008.png":
{
	"frame": {"x":1,"y":683,"w":482,"h":676},
	"rotated": false,
	"trimmed": true,
	"spriteSourceSize": {"x":19,"y":58,"w":482,"h":676},
	"sourceSize": {"w":501,"h":734}
},
"wild_seq_0009.png":
{
	"frame": {"x":1,"y":1,"w":482,"h":680},
	"rotated": false,
	"trimmed": true,
	"spriteSourceSize": {"x":19,"y":54,"w":482,"h":680},
	"sourceSize": {"w":501,"h":734}
},
"wild_seq_0010.png":
{
	"frame": {"x":485,"y":1,"w":482,"h":671},
	"rotated": false,
	"trimmed": true,
	"spriteSourceSize": {"x":19,"y":63,"w":482,"h":671},
	"sourceSize": {"w":501,"h":734}
},
"wild_seq_0011.png":
{
	"frame": {"x":972,"y":1315,"w":482,"h":647},
	"rotated": false,
	"trimmed": true,
	"spriteSourceSize": {"x":19,"y":87,"w":482,"h":647},
	"sourceSize": {"w":501,"h":734}
},
"wild_seq_0012.png":
{
	"frame": {"x":1456,"y":485,"w":482,"h":607},
	"rotated": true,
	"trimmed": true,
	"spriteSourceSize": {"x":19,"y":127,"w":482,"h":607},
	"sourceSize": {"w":501,"h":734}
},
"wild_seq_0013.png":
{
	"frame": {"x":2629,"y":969,"w":482,"h":544},
	"rotated": true,
	"trimmed": true,
	"spriteSourceSize": {"x":19,"y":190,"w":482,"h":544},
	"sourceSize": {"w":501,"h":734}
},
"wild_seq_0014.png":
{
	"frame": {"x":1456,"y":1453,"w":482,"h":466},
	"rotated": true,
	"trimmed": true,
	"spriteSourceSize": {"x":19,"y":268,"w":482,"h":466},
	"sourceSize": {"w":501,"h":734}
},
"wild_seq_0015.png":
{
	"frame": {"x":2742,"y":1,"w":482,"h":409},
	"rotated": true,
	"trimmed": true,
	"spriteSourceSize": {"x":19,"y":325,"w":482,"h":409},
	"sourceSize": {"w":501,"h":734}
},
"wild_seq_0016.png":
{
	"frame": {"x":2742,"y":485,"w":482,"h":350},
	"rotated": true,
	"trimmed": true,
	"spriteSourceSize": {"x":19,"y":384,"w":482,"h":350},
	"sourceSize": {"w":501,"h":734}
},
"wild_seq_0017.png":
{
	"frame": {"x":2617,"y":1456,"w":482,"h":341},
	"rotated": true,
	"trimmed": true,
	"spriteSourceSize": {"x":19,"y":393,"w":482,"h":341},
	"sourceSize": {"w":501,"h":734}
},
"wild_seq_0018.png":
{
	"frame": {"x":2274,"y":972,"w":482,"h":348},
	"rotated": true,
	"trimmed": true,
	"spriteSourceSize": {"x":19,"y":386,"w":482,"h":348},
	"sourceSize": {"w":501,"h":734}
},
"wild_seq_0019.png":
{
	"frame": {"x":485,"y":674,"w":485,"h":664},
	"rotated": false,
	"trimmed": true,
	"spriteSourceSize": {"x":16,"y":70,"w":485,"h":664},
	"sourceSize": {"w":501,"h":734}
},
"wild_seq_0020.png":
{
	"frame": {"x":969,"y":1,"w":485,"h":656},
	"rotated": false,
	"trimmed": true,
	"spriteSourceSize": {"x":16,"y":78,"w":485,"h":656},
	"sourceSize": {"w":501,"h":734}
},
"wild_seq_0021.png":
{
	"frame": {"x":2107,"y":1,"w":485,"h":633},
	"rotated": true,
	"trimmed": true,
	"spriteSourceSize": {"x":16,"y":101,"w":485,"h":633},
	"sourceSize": {"w":501,"h":734}
},
"wild_seq_0022.png":
{
	"frame": {"x":1,"y":1361,"w":485,"h":595},
	"rotated": false,
	"trimmed": true,
	"spriteSourceSize": {"x":16,"y":139,"w":485,"h":595},
	"sourceSize": {"w":501,"h":734}
}},
"animations": {
	"wild_seq": ["wild_seq_0001.png","wild_seq_0002.png","wild_seq_0003.png","wild_seq_0004.png","wild_seq_0005.png","wild_seq_0006.png","wild_seq_0007.png","wild_seq_0008.png","wild_seq_0009.png","wild_seq_0010.png","wild_seq_0011.png","wild_seq_0012.png","wild_seq_0013.png","wild_seq_0014.png","wild_seq_0015.png","wild_seq_0016.png","wild_seq_0017.png","wild_seq_0018.png","wild_seq_0019.png","wild_seq_0020.png","wild_seq_0021.png","wild_seq_0022.png"]
},
"meta": {
	"app": "https://www.codeandweb.com/texturepacker",
	"version": "1.0",
	"image": "wild.png",
	"format": "RGBA8888",
	"size": {"w":3174,"h":1963},
	"scale": "1",
	"smartupdate": "$TexturePacker:SmartUpdate:a4246b16301713ea25e2fb6f5e53e33d:1681f2a23d0f98b6d8e5b8ca78070858:deaba55aa581db694dd9af43af3f4f35$"
}
}
