{"frames": {

"preloader_anim_1.png":
{
	"frame": {"x":154,"y":766,"w":151,"h":84},
	"rotated": true,
	"trimmed": true,
	"spriteSourceSize": {"x":3,"y":18,"w":151,"h":84},
	"sourceSize": {"w":160,"h":110}
},
"preloader_anim_2.png":
{
	"frame": {"x":1,"y":946,"w":151,"h":84},
	"rotated": false,
	"trimmed": true,
	"spriteSourceSize": {"x":3,"y":18,"w":151,"h":84},
	"sourceSize": {"w":160,"h":110}
},
"preloader_anim_3.png":
{
	"frame": {"x":154,"y":1225,"w":151,"h":84},
	"rotated": true,
	"trimmed": true,
	"spriteSourceSize": {"x":3,"y":18,"w":151,"h":84},
	"sourceSize": {"w":160,"h":110}
},
"preloader_anim_4.png":
{
	"frame": {"x":1,"y":1290,"w":151,"h":84},
	"rotated": false,
	"trimmed": true,
	"spriteSourceSize": {"x":3,"y":18,"w":151,"h":84},
	"sourceSize": {"w":160,"h":110}
},
"preloader_anim_5.png":
{
	"frame": {"x":163,"y":154,"w":151,"h":89},
	"rotated": true,
	"trimmed": true,
	"spriteSourceSize": {"x":3,"y":13,"w":151,"h":89},
	"sourceSize": {"w":160,"h":110}
},
"preloader_anim_6.png":
{
	"frame": {"x":1,"y":763,"w":151,"h":95},
	"rotated": false,
	"trimmed": true,
	"spriteSourceSize": {"x":3,"y":7,"w":151,"h":95},
	"sourceSize": {"w":160,"h":110}
},
"preloader_anim_7.png":
{
	"frame": {"x":154,"y":613,"w":151,"h":101},
	"rotated": true,
	"trimmed": true,
	"spriteSourceSize": {"x":3,"y":1,"w":151,"h":101},
	"sourceSize": {"w":160,"h":110}
},
"preloader_anim_8.png":
{
	"frame": {"x":1,"y":561,"w":151,"h":102},
	"rotated": false,
	"trimmed": true,
	"spriteSourceSize": {"x":3,"y":0,"w":151,"h":102},
	"sourceSize": {"w":160,"h":110}
},
"preloader_anim_9.png":
{
	"frame": {"x":1,"y":449,"w":154,"h":110},
	"rotated": false,
	"trimmed": true,
	"spriteSourceSize": {"x":1,"y":0,"w":154,"h":110},
	"sourceSize": {"w":160,"h":110}
},
"preloader_anim_10.png":
{
	"frame": {"x":1,"y":1,"w":160,"h":110},
	"rotated": false,
	"trimmed": false,
	"spriteSourceSize": {"x":0,"y":0,"w":160,"h":110},
	"sourceSize": {"w":160,"h":110}
},
"preloader_anim_11.png":
{
	"frame": {"x":1,"y":113,"w":160,"h":110},
	"rotated": false,
	"trimmed": false,
	"spriteSourceSize": {"x":0,"y":0,"w":160,"h":110},
	"sourceSize": {"w":160,"h":110}
},
"preloader_anim_12.png":
{
	"frame": {"x":1,"y":225,"w":160,"h":110},
	"rotated": false,
	"trimmed": false,
	"spriteSourceSize": {"x":0,"y":0,"w":160,"h":110},
	"sourceSize": {"w":160,"h":110}
},
"preloader_anim_13.png":
{
	"frame": {"x":1,"y":337,"w":160,"h":110},
	"rotated": false,
	"trimmed": false,
	"spriteSourceSize": {"x":0,"y":0,"w":160,"h":110},
	"sourceSize": {"w":160,"h":110}
},
"preloader_anim_14.png":
{
	"frame": {"x":157,"y":460,"w":151,"h":98},
	"rotated": true,
	"trimmed": true,
	"spriteSourceSize": {"x":3,"y":4,"w":151,"h":98},
	"sourceSize": {"w":160,"h":110}
},
"preloader_anim_15.png":
{
	"frame": {"x":1,"y":665,"w":151,"h":96},
	"rotated": false,
	"trimmed": true,
	"spriteSourceSize": {"x":3,"y":6,"w":151,"h":96},
	"sourceSize": {"w":160,"h":110}
},
"preloader_anim_16.png":
{
	"frame": {"x":163,"y":1,"w":151,"h":92},
	"rotated": true,
	"trimmed": true,
	"spriteSourceSize": {"x":3,"y":10,"w":151,"h":92},
	"sourceSize": {"w":160,"h":110}
},
"preloader_anim_17.png":
{
	"frame": {"x":163,"y":307,"w":151,"h":87},
	"rotated": true,
	"trimmed": true,
	"spriteSourceSize": {"x":3,"y":15,"w":151,"h":87},
	"sourceSize": {"w":160,"h":110}
},
"preloader_anim_18.png":
{
	"frame": {"x":1,"y":860,"w":151,"h":84},
	"rotated": false,
	"trimmed": true,
	"spriteSourceSize": {"x":3,"y":18,"w":151,"h":84},
	"sourceSize": {"w":160,"h":110}
},
"preloader_anim_19.png":
{
	"frame": {"x":154,"y":919,"w":151,"h":84},
	"rotated": true,
	"trimmed": true,
	"spriteSourceSize": {"x":3,"y":18,"w":151,"h":84},
	"sourceSize": {"w":160,"h":110}
},
"preloader_anim_20.png":
{
	"frame": {"x":1,"y":1032,"w":151,"h":84},
	"rotated": false,
	"trimmed": true,
	"spriteSourceSize": {"x":3,"y":18,"w":151,"h":84},
	"sourceSize": {"w":160,"h":110}
},
"preloader_anim_21.png":
{
	"frame": {"x":154,"y":1072,"w":151,"h":84},
	"rotated": true,
	"trimmed": true,
	"spriteSourceSize": {"x":3,"y":18,"w":151,"h":84},
	"sourceSize": {"w":160,"h":110}
},
"preloader_anim_22.png":
{
	"frame": {"x":1,"y":1118,"w":151,"h":84},
	"rotated": false,
	"trimmed": true,
	"spriteSourceSize": {"x":3,"y":18,"w":151,"h":84},
	"sourceSize": {"w":160,"h":110}
},
"preloader_anim_23.png":
{
	"frame": {"x":1,"y":1204,"w":151,"h":84},
	"rotated": false,
	"trimmed": true,
	"spriteSourceSize": {"x":3,"y":18,"w":151,"h":84},
	"sourceSize": {"w":160,"h":110}
}},
"animations": {
	"preloader_anim": ["preloader_anim_1.png","preloader_anim_2.png","preloader_anim_3.png","preloader_anim_4.png","preloader_anim_5.png","preloader_anim_6.png","preloader_anim_7.png","preloader_anim_8.png","preloader_anim_9.png","preloader_anim_10.png","preloader_anim_11.png","preloader_anim_12.png","preloader_anim_13.png","preloader_anim_14.png","preloader_anim_15.png","preloader_anim_16.png","preloader_anim_17.png","preloader_anim_18.png","preloader_anim_19.png","preloader_anim_20.png","preloader_anim_21.png","preloader_anim_22.png","preloader_anim_23.png"]
},
"meta": {
	"app": "https://www.codeandweb.com/texturepacker",
	"version": "1.0",
	"image": "preload_ani.png",
	"format": "RGBA8888",
	"size": {"w":256,"h":1377},
	"scale": "1",
	"smartupdate": "$TexturePacker:SmartUpdate:6a0423e27b533e8574e0bef2df7fa03a:aed35c7f3c92fbbce838ef61a019a721:387209b7e609465615eda2e222a7a7b4$"
}
}
